<svg xmlns="http://www.w3.org/2000/svg" width="18" height="20" viewBox="0 0 18 20">
  <path fill="#BDC3FF" fill-rule="evenodd" d="M335.111441,38.0871676 L341.055594,44.1831404 L339.676601,45.597354 L331.402646,37.1120726 L339.676601,28.6267912 L341.055594,30.0410048 L335.111441,36.1369776 L350.626791,36.1369776 L350.626791,38.0871676 L335.111441,38.0871676 Z" transform="rotate(90 188.515 -142.388)"/>
</svg>
