<svg xmlns="http://www.w3.org/2000/svg" width="15" height="15" viewBox="0 0 15 15">
  <path fill="#BDC3FF" d="M8.012 15H.8279A.8279.8279 0 0 1 0 14.172V.828A.8278.8278 0 0 1 .8279 0h13.3443A.8278.8278 0 0 1 15 .8279V14.172a.828.828 0 0 1-.8278.8279h-3.8224V9.1912h1.9497l.292-2.2638h-2.2417V5.482c0-.6554.182-1.1021 1.1219-1.1021l1.1987-.0005V2.3547c-.2073-.0276-.919-.0892-1.7468-.0892-1.7283 0-2.9116 1.055-2.9116 2.9924v1.6695H6.0572v2.2638H8.012V15z"/>
</svg>
