<svg xmlns="http://www.w3.org/2000/svg" width="122" height="20" viewBox="0 0 122 20">
  <g fill="#233089" fill-rule="evenodd">
    <path fill-rule="nonzero" d="M25.1906 13.649H17.397v.049c0 1.4163.586 2.7102 2.5163 2.7102 1.541 0 3.7122-.1266 4.6914-.2245h.0722c.2689 0 .4655.1265.4655.4081v1.8858c0 .4081-.1003.5714-.5136.6693a18.273 18.273 0 0 1-5.0085.596c-2.9537 0-6.132-1.5878-6.132-6.3837v-1.747c0-4 2.2954-6.5306 6.1802-6.5306 4.0131 0 6.0197 2.7837 6.0197 6.5306v1.449c.016.3674-.1806.5878-.4976.5878zm-3.347-2.5837c0-1.8367-.8307-2.7551-2.1992-2.7551-1.3685 0-2.2474.9429-2.2474 2.7551v.102h4.4466v-.102zm16.1249 8.449h-2.733c-.2704 0-.4896-.223-.4896-.498v-.4081c-.9732.7555-2.1711 1.1501-3.3951 1.1183-2.127 0-4.1777-1.0408-4.1777-4.2694v-.2244c0-2.9062 1.834-4.2 6.0197-4.2h1.3204v-.8858c0-1.4163-.6823-1.7142-1.834-1.7142-1.5612 0-3.2949.098-4.0533.1755h-.1325a.3973.3973 0 0 1-.3244-.116.4122.4122 0 0 1-.117-.329V6.147c.0027-.2736.1997-.505.4655-.5469a19.28 19.28 0 0 1 4.2259-.5224c3.5155 0 5.7147 1.4408 5.7147 5.0693v8.8694a.5023.5023 0 0 1-.1434.3521.4855.4855 0 0 1-.3462.1459zm-3.3951-6.0857h-1.3926c-1.7096 0-2.147.5959-2.147 1.8122v.2245c0 1.0408.5096 1.2245 1.537 1.2245a4.4562 4.4562 0 0 0 2.0066-.547l-.004-2.7142zm24.1391 6.0857h-2.9537c-.2742-.0131-.4899-.2432-.4896-.5225v-8.4734c0-1.5878-.3692-2.0613-1.4889-2.0613a4.6068 4.6068 0 0 0-1.8821.449c.0481.4939.0722 1.0653.0722 1.6123v8.4734c.0003.2793-.2154.5094-.4896.5225H48.527c-.2793-.0105-.5034-.2384-.5137-.5225v-8.4734c0-1.5878-.293-2.0613-1.4166-2.0613a4.6032 4.6032 0 0 0-1.8581.645v9.8897c.0024.2786-.212.5093-.4856.5225h-2.9577c-.2785-.0124-.5015-.2392-.5137-.5225V5.7755c0-.275.2192-.498.4896-.498h2.7851c.2704 0 .4897.223.4897.498v.547c1.0515-.7788 2.3114-1.2131 3.6118-1.245 1.2922 0 2.1992.3756 2.8814 1.2245 1.4167-.8163 2.408-1.2244 3.981-1.2244 3.2106 0 4.2019 2.1877 4.2019 5.4408v8.4734c-.0102.2826-.232.51-.5097.5225zm8.8009.2204a22.6804 22.6804 0 0 1-5.2172-.6449c-.6581-.147-.7544-.3225-.7544-.7184V.9551c.0128-.279.2391-.4983.5137-.498h2.9577c.2704 0 .4896.223.4896.498v4.298a17.0072 17.0072 0 0 1 2.0065-.1755c4.1296 0 6.1321 2.449 6.1321 6.3632v1.9347c.004 4.0245-2.171 6.3592-6.128 6.3592zm2.175-8.3061c0-1.7429-.4414-3.0327-2.175-3.0327-.6706.004-1.3404.045-2.0066.1225v7.755c.664.1027 1.3349.1532 2.0066.151 1.7336 0 2.175-1.2938 2.175-3.057v-1.9388zm13.1472-3.0204h-.1967a6.4773 6.4773 0 0 0-3.1503.8694v9.7142c.0003.2793-.2153.5094-.4896.5225h-2.9537c-.2793-.0105-.5033-.2384-.5137-.5225V5.7755c0-.275.2192-.498.4896-.498h2.9056c.2688.0023.4856.2246.4856.498v.498c.9322-.7716 2.0969-1.1938 3.2988-1.196.2704 0 .4896.223.4896.498v2.3592c0 .2286-.1284.4735-.3652.4735zm13.0789 5.2408H88.137v.049c0 1.4163.5859 2.7102 2.5162 2.7102 1.541 0 3.7122-.1266 4.6914-.2245h.0722c.269 0 .4656.1265.4656.4081v1.8858c0 .4081-.1004.5714-.5137.6693a18.273 18.273 0 0 1-5.0084.596c-2.9537 0-6.1321-1.5878-6.1321-6.3837v-1.747c0-4 2.2955-6.5306 6.1802-6.5306 4.0132 0 6.0198 2.7837 6.0198 6.5306v1.449c.016.3674-.1806.5878-.5137.5878zm-3.347-2.5837c0-1.8367-.8307-2.7551-2.1992-2.7551-1.3685 0-2.2474.9429-2.2474 2.7551v.102h4.4627l-.0161-.102zm9.3266 8.449h-2.9778c-.2793-.0105-.5034-.2384-.5137-.5225V.9551c.0129-.279.2392-.4983.5137-.498h2.9778a.4659.4659 0 0 1 .3367.1485.4822.4822 0 0 1 .1288.3495v18.0367c.0114.2744-.196.5071-.4655.5225zm6.2806 0h-2.9778c-.2793-.0105-.5034-.2384-.5137-.5225V.9551c.0129-.279.2392-.4983.5137-.498h2.9778a.4659.4659 0 0 1 .3367.1485.4822.4822 0 0 1 .1288.3495v18.0367c.0114.2744-.196.5071-.4655.5225zm13.0949 0h-2.737c-.2704 0-.4896-.223-.4896-.498v-.4081c-.9717.7555-2.1683 1.1502-3.391 1.1183-2.127 0-4.1778-1.0408-4.1778-4.2694v-.2244c0-2.9062 1.83-4.2 6.0197-4.2h1.3204v-.8858c0-1.4163-.6863-1.7142-1.834-1.7142-1.5652 0-3.2989.098-4.0533.1755h-.1244a.3974.3974 0 0 1-.3234-.119.4123.4123 0 0 1-.114-.33V6.1469c.0007-.2729.1963-.5048.4614-.5469a19.351 19.351 0 0 1 4.2259-.5224c3.5195 0 5.7188 1.4408 5.7188 5.0693v8.8694a.5022.5022 0 0 1-.1477.3565.4852.4852 0 0 1-.354.1415zm-3.3951-6.0857h-1.3926c-1.7096 0-2.151.5959-2.151 1.8122v.2245c0 1.0408.5136 1.2245 1.541 1.2245a4.472 4.472 0 0 0 2.0066-.547l-.004-2.7142z"/>
    <path d="M5.6184 0c-.3886-.0068-.7096.3069-.7183.702a13.0794 13.0794 0 0 1-.1445 1.6817 5.33 5.33 0 0 1-.4575 1.6326 2.848 2.848 0 0 1-.6542.8164 4.3149 4.3149 0 0 1-1.236.706 6.171 6.171 0 0 1-1.7377.3878C.2974 5.946.0038 6.2571 0 6.6367v2.694a.7327.7327 0 0 0 .2167.5224.7074.7074 0 0 0 .5217.1959 9.888 9.888 0 0 0 3.1062-.6612l.0963-.0368a8.5847 8.5847 0 0 0-.3692 3.1551 7.4759 7.4759 0 0 0 1.0876 3.6735c.654.991 1.5483 1.7938 2.5965 2.3306a8.4114 8.4114 0 0 0 3.7322.9837.7314.7314 0 0 0 .5057-.196.7368.7368 0 0 0 .2167-.5224l.0642-2.6571a.7046.7046 0 0 0-.1926-.5102.701.701 0 0 0-.4936-.2245 4.4671 4.4671 0 0 1-1.9625-.5184 2.9706 2.9706 0 0 1-1.0996-.9388 3.5812 3.5812 0 0 1-.4414-1.6571 4.4288 4.4288 0 0 1 .2127-1.7592 3.2724 3.2724 0 0 1 .6822-1.0816 3.4452 3.4452 0 0 1 1.244-.8572 3.2927 3.2927 0 0 1 1.2361-.2163.6876.6876 0 0 0 .5057-.1918.7404.7404 0 0 0 .2207-.502l.0642-2.6531a.7501.7501 0 0 0-.1926-.5184.7329.7329 0 0 0-.4936-.2245h-.3572a7.2431 7.2431 0 0 0-2.3156.4449c.172-.5587.2995-1.1307.3813-1.7102A17.2123 17.2123 0 0 0 8.9654.7755C8.9676.3842 8.6599.0638 8.275.0571L5.6184 0zm2.761 4.7265a7.3453 7.3453 0 0 1-.5096 1.2245 7.0062 7.0062 0 0 1-1.6053 2.0041 8.245 8.245 0 0 1-2.3396 1.396c.032-.098.0642-.196.1003-.2899a7.364 7.364 0 0 1 1.533-2.449 7.4087 7.4087 0 0 1 2.717-1.8367.9923.9923 0 0 1 .1003-.0367l.004-.0123z"/>
  </g>
</svg>
