<svg xmlns="http://www.w3.org/2000/svg" width="22" height="19" viewBox="0 0 22 19">
  <path fill="#BDC3FF" d="M10.0986 13.8983l.6307-.6894c.3628-.3816.9776-.4323 1.4052-.1158l4.8509 3.6696 2.99-14.561-16.4919 6.484L7.079 9.6953c.233.0761.4256.2269.5483.4207l7.3932-3.385-4.922 4.5987v2.5687zM1.4016 9.5C.505 9.2073.468 8.0253 1.3447 7.6834L20.5734.0756c.7591-.2961 1.5629.3223 1.407 1.0825l-3.496 17.0534c-.1464.7142-1.0427 1.0293-1.6496.58L11.806 15.069l-2.8376 2.9848c-.5662.5955-1.6106.328-1.779-.4558l-1.025-6.4917L1.4017 9.5z"/>
</svg>
