<svg xmlns="http://www.w3.org/2000/svg" width="332" height="525" viewBox="0 0 332 525">
  <g fill="none" fill-rule="evenodd" opacity=".21" transform="matrix(1 0 0 -1 -15 668)">
    <path fill="#4EC4F2" d="M126.105054,273.046873 C124.654324,269.444094 122.545704,264.733665 120.037852,261.253311 C118.587122,259.2712 113.447713,253.068358 105.13694,249.220731 C101.976822,247.728318 95.6453405,245 86.6766783,245 C80.6150998,245 70.0663787,247.355214 64.2634575,251.202842 C57.8363848,255.598465 50.3578139,265.573148 47.9118151,273.046873 C47.4451073,274.44018 46.6072825,277.436666 46,280.68383 C46.3261332,281.564121 45.218405,284.578095 48.732771,285.918935 C49.2838236,285.948084 49.8292532,286.128806 50.307207,286.461101 C58.4492903,286.461101 63.3075499,288.081768 65.8322705,283.254745 C66.6644723,277.611558 69.5040801,272.230709 73.8900089,268.826142 C77.4493588,266.097824 79.4230268,266.097824 81.4023178,265.596467 C83.1173284,265.229193 84.1744497,264.733665 87.0759103,264.733665 C95.1167798,264.733665 101.57759,269.817197 104.479051,274.65588 C105.924158,276.993606 106.778852,280.065878 107.228691,283.120661 C107.521086,283.540402 107.909072,284.088397 108.1115,284.548947 C110.922993,287.108202 113.464582,287.044075 117.608722,286.979948 C127.398341,286.828375 127.780704,285.942254 128,283.254745 C127.673867,277.308411 126.706713,274.539286 126.105054,273.046873 Z" transform="rotate(-87 87 266)"/>
    <path fill="#F5F8FD" d="M349.253752,194.059251 C348.920408,193.269292 348.435898,192.236466 347.859654,191.473351 C347.526311,191.038746 346.345397,189.678689 344.435781,188.835044 C343.709661,188.507812 342.254838,187.909591 340.194054,187.909591 C338.801248,187.909591 336.377404,188.426004 335.044032,189.269649 C333.567244,190.233449 331.848847,192.420534 331.286815,194.059251 C331.179577,194.364752 330.987065,195.021773 330.847526,195.733758 C330.922464,195.926773 330.667934,196.587628 331.475451,196.881626 C331.60207,196.888017 331.727397,196.927643 331.837219,197.000503 C333.708075,197.000503 334.824387,197.355857 335.404507,196.297466 C335.595727,195.06012 336.248201,193.880296 337.255983,193.133798 C338.073836,192.535577 338.527338,192.535577 338.982132,192.425647 C339.3762,192.345118 339.619102,192.236466 340.285788,192.236466 C342.133387,192.236466 343.617927,193.3511 344.284613,194.412047 C344.616664,194.924626 344.813053,195.598263 344.916415,196.268066 C344.9836,196.3601 345.07275,196.480255 345.119263,196.581237 C345.765277,197.142389 346.349273,197.128328 347.301498,197.114267 C349.550918,197.081033 349.638776,196.886739 349.689165,196.297466 C349.614227,194.993651 349.391999,194.386482 349.253752,194.059251 Z" transform="rotate(37 340.268 192.514)"/>
    <path fill="#4EC4F2" d="M126.386522,172.615405 C125.413471,170.299333 123.999153,167.2712 122.317057,165.03383 C121.344007,163.759615 117.896842,159.772074 112.322543,157.298599 C110.202952,156.339191 105.956226,154.585273 99.9406603,154.585273 C95.8749674,154.585273 88.7996056,156.099339 84.9074024,158.572814 C80.596561,161.398571 75.5804463,167.810867 73.9398374,172.615405 C73.6268017,173.511103 73.064846,175.437415 72.6575224,177.524878 C72.8762703,178.090779 72.1332818,180.028334 74.4904786,180.890302 C74.860087,180.909041 75.225924,181.025219 75.5465027,181.238837 C81.0076561,181.238837 84.2662449,182.280695 85.959655,179.177608 C86.5178392,175.549845 88.4224542,172.090728 91.3642357,169.902078 C93.7516045,168.148159 95.0754062,168.148159 96.4029794,167.825858 C97.5532914,167.589754 98.2623362,167.2712 100.208438,167.2712 C105.601704,167.2712 109.935174,170.539185 111.881276,173.649767 C112.850555,175.15259 113.423826,177.127623 113.725547,179.091412 C113.921666,179.361245 114.1819,179.713528 114.317675,180.009595 C116.203432,181.654831 117.908157,181.613606 120.687763,181.572382 C127.25397,181.474942 127.510433,180.905293 127.657522,179.177608 C127.438775,175.354966 126.790074,173.574813 126.386522,172.615405 Z" opacity=".7" transform="rotate(-75 100.158 168.085)"/>
    <path fill="#FFE089" d="M293.141863,638.210295 C291.974202,635.46532 290.27702,631.876422 288.258505,629.224724 C287.090844,627.714544 282.954247,622.988569 276.265088,620.057044 C273.721579,618.919967 268.625508,616.841249 261.406829,616.841249 C256.527997,616.841249 248.037563,618.635698 243.366919,621.567224 C238.19391,624.91627 232.174572,632.516028 230.205841,638.210295 C229.830198,639.271862 229.155852,641.554899 228.667063,644.028929 C228.929561,644.699626 228.037975,646.995988 230.866611,648.017581 C231.310141,648.039789 231.749145,648.177482 232.13384,648.430659 C238.687224,648.430659 242.59753,649.665453 244.629622,645.987721 C245.299443,641.68815 247.584981,637.588456 251.115119,634.9945 C253.979962,632.915781 255.568524,632.915781 257.161612,632.533795 C258.541986,632.253967 259.39284,631.876422 261.728162,631.876422 C268.200081,631.876422 273.400246,635.74959 275.735568,639.436205 C276.898703,641.217329 277.586627,643.558108 277.948693,645.885562 C278.184035,646.205365 278.496317,646.622885 278.659246,646.97378 C280.922155,648.923688 282.967824,648.87483 286.303352,648.825971 C294.182801,648.710487 294.490556,648.035347 294.667063,645.987721 C294.404566,641.457181 293.626125,639.347371 293.141863,638.210295 Z" opacity=".519" transform="rotate(53 261.667 632.841)"/>
    <path fill="#4EC4F2" d="M166.092427,627.835271 C163.845565,622.516884 160.579776,615.563394 156.695664,610.425729 C154.448801,607.499755 146.488985,598.343179 133.617422,592.663348 C128.723093,590.460262 118.917018,586.432745 105.026529,586.432745 C95.6384742,586.432745 79.3008208,589.90949 70.3133696,595.589321 C60.359245,602.078098 48.7765802,616.80263 44.9882651,627.835271 C44.2654371,629.892059 42.9678303,634.315442 42.0272831,639.108875 C42.5323918,640.408352 40.816764,644.857553 46.2597455,646.836888 C47.1132051,646.879917 47.9579558,647.146697 48.6982013,647.637228 C61.3085009,647.637228 68.8328787,650.029641 72.7431166,642.904035 C74.0320146,634.573616 78.4299437,626.630459 85.2227847,621.604669 C90.7354364,617.577152 93.7922149,617.577152 96.8577021,616.837053 C99.5138771,616.294887 101.151126,615.563394 105.644851,615.563394 C118.098393,615.563394 128.104771,623.067656 132.598496,630.210473 C134.83665,633.661401 136.160383,638.19666 136.857085,642.706102 C137.309941,643.32572 137.910846,644.134665 138.224362,644.814524 C142.578747,648.592472 146.515111,648.497808 152.933475,648.403144 C168.095445,648.179393 168.687641,646.871311 169.027283,642.904035 C168.522174,634.126114 167.024266,630.038357 166.092427,627.835271 Z" opacity=".6" transform="rotate(142 105.527 617.433)"/>
    <path fill="#BDC3FF" d="M133.548526,405.570309 C131.248588,400.166141 127.905654,393.100498 123.929792,387.879967 C121.629854,384.9068 113.48201,375.602537 100.306395,369.831096 C95.2964516,367.592477 85.2587364,363.5 71.0401257,363.5 C61.4303061,363.5 44.7067238,367.032822 35.5069707,372.804263 C25.3177092,379.397697 13.4614382,394.359721 9.5836353,405.570309 C8.84373268,407.66027 7.51547375,412.154999 6.55270888,417.025745 C7.06974927,418.346181 5.31359485,422.867143 10.8851508,424.878403 C11.7587707,424.922126 12.6234762,425.193209 13.3812078,425.691652 C26.2893886,425.691652 33.9915075,428.122653 37.9941133,420.882117 C39.3134577,412.417337 43.8152749,404.346064 50.7685767,399.239213 C56.4114485,395.146736 59.5404343,395.146736 62.6783346,394.3947 C65.3972539,393.84379 67.0731779,393.100498 71.6730545,393.100498 C84.4207744,393.100498 94.6635228,400.725796 99.2633994,407.983821 C101.554423,411.490408 102.909426,416.098817 103.622585,420.680991 C104.086138,421.310603 104.701238,422.132596 105.02216,422.82342 C109.479404,426.662303 113.508754,426.566112 120.078732,426.469922 C135.598859,426.242562 136.205044,424.913382 136.552709,420.882117 C136.035668,411.962617 134.502376,407.808928 133.548526,405.570309 Z" opacity=".4" transform="rotate(-162 71.553 395)"/>
    <path fill="#ED4E73" d="M48.9799708,197.994564 C48.4480403,196.733992 47.6748855,195.085866 46.7553467,193.868129 C46.2234161,193.174611 44.3389801,191.004306 41.2917192,189.658064 C40.1330178,189.135885 37.8114915,188.181278 34.5230063,188.181278 C32.3004439,188.181278 28.432608,189.005341 26.3048859,190.351583 C23.9483099,191.889562 21.2061875,195.379591 20.3093279,197.994564 C20.1382029,198.482067 19.8310027,199.530503 19.6083341,200.66665 C19.7279154,200.974654 19.3217514,202.02921 20.6103428,202.498355 C20.8123939,202.508553 21.0123833,202.571786 21.1876317,202.688052 C24.1730403,202.688052 25.954389,203.255106 26.8801131,201.566184 C27.1852515,199.591696 28.2264334,197.708998 29.8345954,196.517778 C31.1396808,195.56317 31.8633537,195.56317 32.5890884,195.38775 C33.217921,195.259246 33.6055292,195.085866 34.6693903,195.085866 C37.6176874,195.085866 39.9866338,196.864537 41.0504949,198.557538 C41.5803636,199.375482 41.8937491,200.450435 42.0586888,201.51927 C42.1658996,201.666132 42.3081601,201.85787 42.3823829,202.019011 C43.413256,202.914466 44.3451653,202.892028 45.8646723,202.869591 C49.4541725,202.816557 49.5943712,202.506514 49.6747793,201.566184 C49.555198,199.485629 49.2005777,198.516743 48.9799708,197.994564 Z" transform="rotate(-55 34.642 195.529)"/>
  </g>
</svg>
