<svg xmlns="http://www.w3.org/2000/svg" xmlns:xlink="http://www.w3.org/1999/xlink" width="1440" height="1305" viewBox="0 0 1440 1305">
  <defs>
    <linearGradient id="team-section-bg-a" x1="50%" x2="50%" y1="0%" y2="100%">
      <stop offset="0%" stop-color="#FFF"/>
      <stop offset="100%" stop-color="#FFF" stop-opacity="0"/>
    </linearGradient>
    <radialGradient id="team-section-bg-c" cx="49.493%" cy="54.073%" r="68.004%" fx="49.493%" fy="54.073%" gradientTransform="matrix(0 -1 .79849 0 .063 1.036)">
      <stop offset="0%" stop-color="#FFF"/>
      <stop offset="94.667%" stop-color="#FFF"/>
      <stop offset="100%" stop-color="#FFF" stop-opacity="0"/>
    </radialGradient>
    <rect id="team-section-bg-b" width="1440" height="1033.859"/>
  </defs>
  <g fill="none" fill-rule="evenodd">
    <path fill="url(#team-section-bg-a)" d="M-6.32603832e-06,115.444726 C226.276338,40.6497285 468.162722,0.171587357 719.5,0.171587357 C971.207567,0.171587357 1213.43637,40.7690872 1440.00001,115.77553 L1440,1304.62452 L0,1304.62452 L0,115.444724 Z"/>
    <g opacity=".3" transform="translate(0 .172)">
      <mask id="team-section-bg-d" fill="#fff">
        <use xlink:href="#team-section-bg-b"/>
      </mask>
      <use fill="url(#team-section-bg-c)" xlink:href="#team-section-bg-b"/>
      <g mask="url(#team-section-bg-d)" opacity=".21">
        <g transform="matrix(1 0 0 -1 128 548.19)">
          <path fill="#4EC4F2" d="M1178.10505,320.158038 C1176.65432,316.554009 1174.5457,311.841944 1172.03785,308.360381 C1170.58712,306.377581 1165.44771,300.172585 1157.13694,296.323621 C1153.97682,294.830689 1147.64534,292.101424 1138.67668,292.101424 C1132.6151,292.101424 1122.06638,294.457457 1116.26346,298.306421 C1109.83638,302.70357 1102.35781,312.681718 1099.91182,320.158038 C1099.44511,321.55183 1098.60728,324.549356 1098,327.797649 C1098.32613,328.678245 1097.2184,331.693267 1100.73277,333.034572 C1101.28382,333.063731 1101.82925,333.244516 1102.30721,333.576926 C1110.44929,333.576926 1115.30755,335.198157 1117.83227,330.369456 C1118.66447,324.724309 1121.50408,319.341592 1125.89001,315.935842 C1129.44936,313.206576 1131.42303,313.206576 1133.40232,312.705045 C1135.11733,312.337644 1136.17445,311.841944 1139.07591,311.841944 C1147.11678,311.841944 1153.57759,316.927241 1156.47905,321.767605 C1157.92416,324.106142 1158.77885,327.179482 1159.22869,330.235326 C1159.52109,330.655213 1159.90907,331.203399 1160.1115,331.664108 C1162.92299,334.224252 1165.46458,334.160103 1169.60872,334.095953 C1179.39834,333.944327 1179.7807,333.057899 1180,330.369456 C1179.67387,324.421058 1178.70671,321.65097 1178.10505,320.158038 Z" transform="rotate(53 1139 313.109)"/>
          <path fill="#F5F8FD" d="M763.253752,224.137076 C762.920408,223.346843 762.435898,222.313659 761.859654,221.550279 C761.526311,221.115523 760.345397,219.754993 758.435781,218.911055 C757.709661,218.583709 756.254838,217.98528 754.194054,217.98528 C752.801248,217.98528 750.377404,218.501873 749.044032,219.345811 C747.567244,220.309946 745.848847,222.497791 745.286815,224.137076 C745.179577,224.442684 744.987065,225.099932 744.847526,225.812165 C744.922464,226.005247 744.667934,226.666332 745.475451,226.960432 C745.60207,226.966825 745.727397,227.006465 745.837219,227.07935 C747.708075,227.07935 748.824387,227.434827 749.404507,226.376069 C749.595727,225.138293 750.248201,223.958059 751.255983,223.211302 C752.073836,222.612873 752.527338,222.612873 752.982132,222.502905 C753.3762,222.422348 753.619102,222.313659 754.285788,222.313659 C756.133387,222.313659 757.617927,223.42868 758.284613,224.489995 C758.616664,225.002752 758.813053,225.676623 758.916415,226.346659 C758.9836,226.438725 759.07275,226.558922 759.119263,226.659939 C759.765277,227.221285 760.349273,227.20722 761.301498,227.193154 C763.550918,227.159908 763.638776,226.965546 763.689165,226.376069 C763.614227,225.071801 763.391999,224.464421 763.253752,224.137076 Z" transform="rotate(107 754.268 222.591)"/>
          <path fill="#ED4E73" d="M987.979971,200.064031 C987.44804,198.803021 986.674885,197.154322 985.755347,195.936163 C985.223416,195.242403 983.33898,193.071344 980.291719,191.724635 C979.133018,191.202275 976.811492,190.247336 973.523006,190.247336 C971.300444,190.247336 967.432608,191.071685 965.304886,192.418394 C962.94831,193.956908 960.206187,197.44815 959.309328,200.064031 C959.138203,200.551703 958.831003,201.600504 958.608334,202.737045 C958.727915,203.045155 958.321751,204.100078 959.610343,204.569386 C959.812394,204.579588 960.012383,204.642842 960.187632,204.759149 C963.17304,204.759149 964.954389,205.326399 965.880113,203.636891 C966.185252,201.661718 967.226433,199.778365 968.834595,198.586731 C970.139681,197.631792 970.863354,197.631792 971.589088,197.456312 C972.217921,197.327762 972.605529,197.154322 973.66939,197.154322 C976.617687,197.154322 978.986634,198.933611 980.050495,200.6272 C980.580364,201.445428 980.893749,202.520755 981.058689,203.589961 C981.1659,203.736874 981.30816,203.928678 981.382383,204.089875 C982.413256,204.985641 983.345165,204.963196 984.864672,204.940751 C988.454172,204.887699 988.594371,204.577547 988.674779,203.636891 C988.555198,201.555613 988.200578,200.586391 987.979971,200.064031 Z" transform="rotate(-55 973.642 197.598)"/>
          <path fill="#ED4E73" d="M916.42674,72.3653083 C916.038855,71.4457778 915.475069,70.2435439 914.80454,69.3552596 C914.416655,68.849369 913.042521,67.2662292 910.820453,66.2842064 C909.975526,65.9033006 908.282665,65.2069571 905.884696,65.2069571 C904.263999,65.2069571 901.443567,65.8080741 899.892028,66.7900969 C898.173609,67.9119836 896.174048,70.4578034 895.520056,72.3653083 C895.395272,72.7209196 895.171261,73.4857071 895.008891,74.3144748 C895.096089,74.5391497 894.799914,75.3084009 895.739557,75.650621 C895.886893,75.6580606 896.032726,75.7041859 896.160517,75.7889969 C898.337482,75.7889969 899.636445,76.2026369 900.311485,74.9706446 C900.533992,73.5303445 901.293224,72.1570004 902.465898,71.288059 C903.417569,70.5917156 903.945272,70.5917156 904.474479,70.463755 C904.933025,70.3700165 905.21567,70.2435439 905.991439,70.2435439 C908.141343,70.2435439 909.868782,71.5410043 910.644552,72.7759724 C911.030933,73.3726256 911.259454,74.156756 911.379729,74.9364226 C911.457907,75.0435524 911.561643,75.1834162 911.615767,75.3009614 C912.367481,75.9541553 913.047031,75.9377883 914.155058,75.9214212 C916.772528,75.8827355 916.874761,75.6565727 916.933395,74.9706446 C916.846196,73.452973 916.587607,72.7462141 916.42674,72.3653083 Z" transform="rotate(-128 905.971 70.567)"/>
          <path fill="#4EC4F2" d="M577.386522,246.701065 C576.413471,244.384189 574.999153,241.355004 573.317057,239.116856 C572.344007,237.8422 568.896842,233.853273 563.322543,231.378939 C561.202952,230.419198 556.956226,228.66467 550.94066,228.66467 C546.874967,228.66467 539.799606,230.179262 535.907402,232.653596 C531.596561,235.480335 526.580446,241.894859 524.939837,246.701065 C524.626802,247.597074 524.064846,249.524055 523.657522,251.612243 C523.87627,252.178341 523.133282,254.116569 525.490479,254.978837 C525.860087,254.997582 526.225924,255.1138 526.546503,255.327493 C532.007656,255.327493 535.266245,256.369712 536.959655,253.265548 C537.517839,249.636525 539.422454,246.176206 542.364236,243.986796 C544.751605,242.232268 546.075406,242.232268 547.402979,241.909855 C548.553291,241.673668 549.262336,241.355004 551.208438,241.355004 C556.601704,241.355004 560.935174,244.624124 562.881276,247.735786 C563.850555,249.239132 564.423826,251.21485 564.725547,253.179321 C564.921666,253.449248 565.1819,253.801654 565.317675,254.097824 C567.203432,255.743631 568.908157,255.702392 571.687763,255.661153 C578.25397,255.563679 578.510433,254.993833 578.657522,253.265548 C578.438775,249.441577 577.790074,247.660807 577.386522,246.701065 Z" opacity=".7" transform="rotate(-75 551.158 242.17)"/>
          <path fill="#FFD152" d="M79.1418627,330.324991 C77.9742017,327.579063 76.2770201,323.988918 74.2585054,321.336299 C73.0908444,319.825595 68.954247,315.097978 62.2650884,312.165434 C59.7215788,311.027963 54.6255081,308.948523 47.4068288,308.948523 C42.5279973,308.948523 34.0375632,310.743595 29.3669193,313.676139 C24.1939096,317.026348 18.174572,324.628746 16.2058413,330.324991 C15.8301985,331.386927 15.1558516,333.670757 14.6670633,336.145646 C14.9295607,336.816577 14.0379746,339.113736 16.8666107,340.135683 C17.3101409,340.157899 17.7491452,340.29564 18.1338397,340.548905 C24.6872238,340.548905 28.5975303,341.784128 30.6296224,338.105119 C31.2994435,333.804054 33.5849814,329.702936 37.1151192,327.108079 C39.9799619,325.028639 41.5685239,325.028639 43.1616117,324.646519 C44.5419861,324.366595 45.3928399,323.988918 47.7281618,323.988918 C54.2000812,323.988918 59.4002458,327.863431 61.7355677,331.551327 C62.8987029,333.33307 63.5866272,335.674662 63.9486926,338.002924 C64.1840351,338.322838 64.4963165,338.740503 64.659246,339.09152 C66.9221548,341.042106 68.9678245,340.99323 72.3033521,340.944354 C80.1828008,340.82883 80.4905564,340.153456 80.6670633,338.105119 C80.4045659,333.573005 79.6261252,331.462462 79.1418627,330.324991 Z" transform="rotate(153 47.667 324.954)"/>
          <path fill="#4EC4F2" d="M406.491588,178.328293 C405.23157,175.344761 403.40015,171.443962 401.22198,168.561811 C399.961963,166.920386 395.49818,161.783689 388.279942,158.597393 C385.535253,157.361496 380.036107,155.102122 372.246465,155.102122 C366.981742,155.102122 357.819755,157.052522 352.779686,160.238818 C347.197516,163.878921 340.702078,172.139154 338.57763,178.328293 C338.172276,179.482119 337.444591,181.963568 336.917142,184.65261 C337.200402,185.381596 336.238296,187.877528 339.290663,188.987904 C339.769274,189.012043 340.243002,189.161702 340.658124,189.436882 C347.729849,189.436882 351.949442,190.778989 354.142263,186.781635 C354.865063,182.1084 357.331376,177.652412 361.140731,174.833023 C364.232169,172.573649 365.946379,172.573649 367.665472,172.158464 C369.155027,171.854318 370.07318,171.443962 372.593214,171.443962 C379.577031,171.443962 385.188504,175.653735 387.708538,179.660745 C388.963672,181.596661 389.706008,184.140871 390.096711,186.670597 C390.350668,187.018193 390.687649,187.471999 390.863466,187.853389 C393.30536,189.972759 395.512832,189.919654 399.112184,189.86655 C407.614859,189.741029 407.946956,189.007215 408.137424,186.781635 C407.854164,181.857358 407.014153,179.56419 406.491588,178.328293 Z" transform="rotate(132 372.527 172.493)"/>
          <path fill="#ED4E73" d="M267.524832,362.928318 C267.150642,362.035103 266.606761,360.867276 265.959905,360.004413 C265.585715,359.513001 264.260095,357.975169 262.116479,357.021251 C261.301382,356.651246 259.668289,355.974831 257.354981,355.974831 C255.791504,355.974831 253.070648,356.558745 251.573888,357.512663 C249.916138,358.602443 247.987173,361.075404 247.356271,362.928318 C247.235892,363.273752 247.01979,364.016652 246.863152,364.821701 C246.947273,365.039946 246.661554,365.787182 247.568022,366.119608 C247.710156,366.126835 247.85084,366.17164 247.97412,366.254024 C250.074226,366.254024 251.327328,366.655826 251.978535,365.459092 C252.193187,364.060012 252.925614,362.725971 254.056886,361.881898 C254.974957,361.205483 255.48403,361.205483 255.994553,361.081185 C256.43691,360.990129 256.709576,360.867276 257.457956,360.867276 C259.531956,360.867276 261.198407,362.127604 261.946788,363.327229 C262.319528,363.906807 262.539981,364.668496 262.656009,365.425849 C262.731427,365.529913 262.831501,365.665774 262.883714,365.779955 C263.608888,366.414456 264.264446,366.398557 265.333354,366.382658 C267.858413,366.34508 267.957036,366.125389 268.0136,365.459092 C267.92948,363.984855 267.68002,363.298322 267.524832,362.928318 Z" transform="rotate(63 257.438 361.181)"/>
          <path fill="#BDC3FF" d="M710.966399,150.767005 C709.409518,147.077165 707.146609,142.252908 704.455256,138.688451 C702.898375,136.658441 697.382912,130.305707 688.464033,126.365101 C685.072687,124.836624 678.277926,122.042376 668.653021,122.042376 C662.147912,122.042376 650.827333,124.454504 644.599808,128.39511 C637.702462,132.896954 629.676678,143.112676 627.051704,150.767005 C626.550847,152.193982 625.651718,155.262878 625,158.588511 C625.349997,159.490073 624.161215,162.576881 627.93273,163.950123 C628.524103,163.979976 629.109443,164.165065 629.622369,164.50539 C638.360214,164.50539 643.573956,166.165221 646.283412,161.221552 C647.176507,155.441996 650.223891,149.931119 654.930741,146.44428 C658.750531,143.650032 660.868614,143.650032 662.992731,143.136559 C664.83323,142.76041 665.967702,142.252908 669.081465,142.252908 C677.710691,142.252908 684.644243,147.459284 687.758006,152.414895 C689.308853,154.809111 690.226085,157.955625 690.708839,161.084228 C691.022629,161.514112 691.439004,162.07535 691.656244,162.547028 C694.673455,165.168128 697.401015,165.102452 701.848385,165.036775 C712.354317,164.881539 712.764657,163.974005 713,161.221552 C712.650003,155.131524 711.612083,152.295482 710.966399,150.767005 Z" transform="rotate(63 669 143.55)"/>
          <path fill="#7882E4" d="M848.378062,202.77952 C847.590805,200.907013 846.446536,198.458814 845.085618,196.649935 C844.298361,195.619753 841.509396,192.395888 836.99945,190.396122 C835.284572,189.620456 831.848713,188.20244 826.981755,188.20244 C823.692362,188.20244 817.967965,189.426539 814.818936,191.426305 C811.331204,193.710886 807.272863,198.895127 805.945511,202.77952 C805.692246,203.503678 805.237589,205.061071 804.90804,206.748753 C805.08502,207.206275 804.483897,208.772758 806.391013,209.469646 C806.690048,209.484796 806.986033,209.578724 807.2454,209.751431 C811.663805,209.751431 814.300201,210.593757 815.670273,208.08496 C816.121878,205.15197 817.662827,202.355328 820.042907,200.585838 C821.974433,199.167822 823.045469,199.167822 824.119556,198.907247 C825.050228,198.71636 825.623889,198.458814 827.198403,198.458814 C831.561883,198.458814 835.067923,201.100929 836.642438,203.615786 C837.426644,204.830795 837.890454,206.427578 838.134565,208.015271 C838.293237,208.233427 838.503782,208.518242 838.613632,208.757608 C840.139324,210.087755 841.51855,210.054426 843.76742,210.021097 C849.079881,209.942318 849.287375,209.481766 849.406379,208.08496 C849.229398,204.994413 848.70456,203.555187 848.378062,202.77952 Z" transform="rotate(39 827.157 199.117)"/>
          <path fill="#BDC3FF" d="M78.7052753,227.242929 C77.3640772,224.09042 75.4146614,219.968692 73.0961562,216.923307 C71.7549581,215.188917 67.0035819,209.761296 59.3202843,206.394538 C56.3987597,205.088644 50.5453138,202.701307 42.2537985,202.701307 C36.6498777,202.701307 26.8976001,204.762171 21.5328078,208.128928 C15.5909883,211.975194 8.67706015,220.703258 6.41573778,227.242929 C5.98426708,228.462104 5.20969919,231.084093 4.64826743,233.925433 C4.94977707,234.695706 3.92568396,237.333 7.17471035,238.506264 C7.68415768,238.531769 8.18840658,238.689905 8.63027417,238.98067 C16.1576185,238.98067 20.6490726,240.398789 22.9831731,236.175039 C23.7525426,231.237128 26.3777559,226.528768 30.4325408,223.549698 C33.7231548,221.162361 35.547808,221.162361 37.3776597,220.723662 C38.9631845,220.40229 39.9404917,219.968692 42.6228879,219.968692 C50.0566602,219.968692 56.0296703,224.416893 58.7120665,228.650846 C60.0480662,230.696406 60.8382294,233.384711 61.2541048,236.057713 C61.5244238,236.424995 61.8831163,236.904503 62.0702602,237.307494 C64.6694813,239.546898 67.0191772,239.490785 70.8504291,239.434673 C79.900917,239.302043 80.2544111,238.526668 80.4571503,236.175039 C80.1556407,230.971868 79.2615086,228.548823 78.7052753,227.242929 Z" opacity=".5" transform="rotate(-162 42.553 221.077)"/>
          <path fill="#ED4E73" d="M602.482977,9.99980917 C602.202478,9.33263455 601.794775,8.46034151 601.30988,7.81583787 C601.02938,7.44878387 600.035671,6.30012076 598.428778,5.58760417 C597.817766,5.3112341 596.59357,4.80599507 594.859473,4.80599507 C593.687462,4.80599507 591.647859,5.24214158 590.52586,5.95465817 C589.283181,6.7686544 587.837194,8.61579968 587.364258,9.99980917 C587.27402,10.2578265 587.112026,10.8127258 586.994608,11.4140466 C587.057666,11.5770618 586.843486,12.1351998 587.522991,12.383501 C587.629537,12.3888989 587.734996,12.4223656 587.827409,12.4839011 C589.401687,12.4839011 590.341035,12.7840217 590.829191,11.8901373 C590.990098,10.8451129 591.539138,9.84866929 592.387161,9.21820006 C593.075364,8.71296103 593.456974,8.71296103 593.839671,8.62011796 C594.17127,8.55210501 594.375665,8.46034151 594.936664,8.46034151 C596.491372,8.46034151 597.740575,9.40172707 598.301574,10.2977707 C598.580987,10.7306785 598.746242,11.2996122 598.833219,11.8653072 C598.889754,11.9430362 598.964771,12.0445159 599.003911,12.1298019 C599.547515,12.6037334 600.038933,12.5918582 600.840206,12.5799829 C602.733035,12.551914 602.806965,12.3878193 602.849367,11.8901373 C602.786308,10.7889753 602.599309,10.2761792 602.482977,9.99980917 Z" transform="rotate(-106 594.922 8.695)"/>
          <path fill="#4EC4F2" d="M816.465353,373.092727 C814.342333,368.029923 811.256548,361.410594 807.586522,356.519827 C805.463502,353.734466 797.942415,345.017923 785.780309,339.611045 C781.155746,337.513832 771.890163,333.679864 758.765291,333.679864 C749.894689,333.679864 734.457536,336.989529 725.965456,342.396407 C716.559984,348.573355 705.615734,362.590276 702.036223,373.092727 C701.353236,375.050672 700.127151,379.261483 699.238445,383.82456 C699.715713,385.061589 698.094647,389.296976 703.237622,391.181191 C704.044041,391.222152 704.84223,391.476112 705.541675,391.94307 C717.456919,391.94307 724.566567,394.220512 728.26128,387.437338 C729.479136,379.50725 733.63466,371.945814 740.053092,367.161546 C745.261897,363.327578 748.150192,363.327578 751.046715,362.623045 C753.556487,362.106934 755.103493,361.410594 759.349533,361.410594 C771.116659,361.410594 780.571504,368.554226 784.817544,375.353785 C786.932335,378.638873 788.183107,382.956183 788.841407,387.248916 C789.269303,387.838758 789.837087,388.608828 790.133323,389.256015 C794.247702,392.852408 797.967102,392.762293 804.031697,392.672179 C818.357968,392.459181 818.917523,391.21396 819.238445,387.437338 C818.761177,379.081254 817.34583,375.18994 816.465353,373.092727 Z" transform="rotate(-34 759.238 363.19)"/>
          <path fill="#4EC4F2" d="M708.445382,257.102664 C708.020778,256.072941 707.403621,254.726637 706.669615,253.731905 C706.245011,253.16539 704.740794,251.392534 702.308373,250.29283 C701.38346,249.866278 699.530344,249.086488 696.905369,249.086488 C695.131249,249.086488 692.043818,249.75964 690.345402,250.859344 C688.464308,252.115673 686.275458,254.966572 685.559556,257.102664 C685.422958,257.50089 685.177741,258.357326 685,259.28541 C685.095454,259.537009 684.77124,260.398443 685.799835,260.781674 C685.961119,260.790005 686.120757,260.841657 686.260646,260.936632 C688.643695,260.936632 690.065624,261.399841 690.804567,260.020212 C691.048138,258.407313 691.879243,256.869393 693.162929,255.896322 C694.20469,255.116532 694.782349,255.116532 695.361654,254.973237 C695.863608,254.868265 696.17301,254.726637 697.022218,254.726637 C699.375643,254.726637 701.266612,256.179579 702.11582,257.56254 C702.538778,258.230694 702.788932,259.108791 702.920592,259.981889 C703.006172,260.101857 703.119728,260.258481 703.178976,260.390112 C704.001851,261.121582 704.745731,261.103254 705.95865,261.084925 C708.823905,261.041604 708.935816,260.788338 709,260.020212 C708.904546,258.320669 708.621477,257.529216 708.445382,257.102664 Z" transform="rotate(71 697 255.089)"/>
        </g>
      </g>
    </g>
  </g>
</svg>
